6.3 	3.3 	6.0 	2.5 	3
5.8 	2.7 	5.1 	1.9 	3
7.1 	3.0 	5.9 	2.1 	3
6.3 	2.9 	5.6 	1.8 	3
6.5 	3.0 	5.8 	2.2 	3
7.6 	3.0 	6.6 	2.1 	3
4.9 	2.5 	4.5 	1.7 	3
7.3 	2.9 	6.3 	1.8 	3
6.7 	2.5 	5.8 	1.8 	3
7.2 	3.6 	6.1 	2.5 	3
6.5 	3.2 	5.1 	2.0 	3
6.4 	2.7 	5.3 	1.9 	3
6.8 	3.0 	5.5 	2.1 	3
5.7 	2.5 	5.0 	2.0 	3
5.8 	2.8 	5.1 	2.4 	3
6.4 	3.2 	5.3 	2.3 	3
6.5 	3.0 	5.5 	1.8 	3
7.7 	3.8 	6.7 	2.2 	3
7.7 	2.6 	6.9 	2.3 	3
6.0 	2.2 	5.0 	1.5 	3
6.9 	3.2 	5.7 	2.3 	3
5.6 	2.8 	4.9 	2.0 	3
7.7 	2.8 	6.7 	2.0 	3
6.3 	2.7 	4.9 	1.8 	3
6.7 	3.3 	5.7 	2.1 	3
